{
  "draw": 2,
  "columns": [
    {
      "data": "id_tickets",
      "name": "",
      "searchable": true,
      "orderable": true,
      "search": {
        "value": "",
        "regex": false
      }
    },
    {
      "data": "client",
      "name": "",
      "searchable": true,
      "orderable": true,
      "search": {
        "value": "",
        "regex": false
      }
    },
    {
      "data": "contact",
      "name": "",
      "searchable": true,
      "orderable": true,
      "search": {
        "value": "",
        "regex": false
      }
    },
    {
      "data": "created_at",
      "name": "",
      "searchable": true,
      "orderable": true,
      "search": {
        "value": "",
        "regex": false
      }
    },
    {
      "data": "",
      "name": "",
      "searchable": false,
      "orderable": false,
      "search": {
        "value": "",
        "regex": false
      }
    }
  ],
  "start": 0,
  "length": 10,
  "search": {
    "value": "",
    "regex": false
  },
  "status": ""
}